/home/rodri/Documentos/TSSI/1erCuatri/Programacion-Laboratorio Avanzada I/workFlow/src/main/java/workFlow/Controllers/AutoController.java
/home/rodri/Documentos/TSSI/1erCuatri/Programacion-Laboratorio Avanzada I/workFlow/src/main/java/workFlow/Persistence/AutoPersistence.java
/home/rodri/Documentos/TSSI/1erCuatri/Programacion-Laboratorio Avanzada I/workFlow/src/main/java/workFlow/Models/Marca.java
/home/rodri/Documentos/TSSI/1erCuatri/Programacion-Laboratorio Avanzada I/workFlow/src/main/java/workFlow/Services/AutoService.java
/home/rodri/Documentos/TSSI/1erCuatri/Programacion-Laboratorio Avanzada I/workFlow/src/main/java/workFlow/Models/Auto.java
/home/rodri/Documentos/TSSI/1erCuatri/Programacion-Laboratorio Avanzada I/workFlow/src/main/java/workFlow/App.java
